module github.com/anvh2/go-taxi

go 1.20

require (
	github.com/grpc-ecosystem/grpc-gateway/v2 v2.18.0
	google.golang.org/genproto/googleapis/api v0.0.0-20230913181813-007df8e322eb
	google.golang.org/grpc v1.58.1
	google.golang.org/protobuf v1.31.0
)

require (
	github.com/golang/protobuf v1.5.3 // indirect
	golang.org/x/net v0.15.0 // indirect
	golang.org/x/sys v0.12.0 // indirect
	golang.org/x/text v0.13.0 // indirect
	google.golang.org/genproto v0.0.0-20230803162519-f966b187b2e5 // indirect
	google.golang.org/genproto/googleapis/rpc v0.0.0-20230822172742-b8732ec3820d // indirect
)
